<svg xmlns="http://www.w3.org/2000/svg" width="26" height="26" viewBox="0 0 26 26">
    <g fill="none" fill-rule="evenodd" stroke="#CE1B0E" stroke-width="2" transform="translate(1 1)">
        <path d="M6 14.333L12.172 9 18 14.333"/>
        <circle cx="12" cy="12" r="12"/>
    </g>
</svg>
