<?xml version="1.0" encoding="UTF-8"?>
<svg width="15px" height="20px" viewBox="0 0 15 20" version="1.1" xmlns="http://www.w3.org/2000/svg" xmlns:xlink="http://www.w3.org/1999/xlink">
    <!-- Generator: Sketch 45.1 (43504) - http://www.bohemiancoding.com/sketch -->
    <title>mobile banking icon</title>
    <desc>Created with Sketch.</desc>
    <defs>
        <rect id="path-1" x="5.76923077" y="16.8421053" width="2.30769231" height="1.05263158" rx="0.526315789"></rect>
    </defs>
    <g id="Icons" stroke="none" stroke-width="1" fill="none" fill-rule="evenodd">
        <g id="icons" transform="translate(-489.000000, -101.000000)">
            <g id="mobile-banking-icon" transform="translate(480.000000, 97.000000)">
                <g transform="translate(9.000000, 4.000000)">
                    <rect id="Rectangle-8" stroke="#54585A" x="0.5" y="0.5" width="14" height="19" rx="1"></rect>
                    <rect id="Rectangle-10" stroke="#54585A" x="2.80769231" y="2.60526316" width="9.38461538" height="12.6842105"></rect>
                    <g id="Rectangle-14">
                        <use fill="#54585A" fill-rule="evenodd" xlink:href="#path-1"></use>
                        <rect stroke="#54585A" stroke-width="1" x="6.26923077" y="17.3421053" width="1.30769231" height="1" rx="0.5"></rect>
                    </g>
                </g>
            </g>
        </g>
    </g>
</svg>