<?xml version="1.0" encoding="UTF-8"?>
<svg width="1518px" height="1185px" viewBox="0 0 1518 1185" version="1.1" xmlns="http://www.w3.org/2000/svg" xmlns:xlink="http://www.w3.org/1999/xlink">
    <!-- Generator: Sketch 52.4 (67378) - http://www.bohemiancoding.com/sketch -->
    <title>Fill 331 Copy 3</title>
    <desc>Created with Sketch.</desc>
    <defs>
        <linearGradient x1="29.8170281%" y1="40.3698473%" x2="105.031846%" y2="61.9176038%" id="linearGradient-1">
            <stop stop-color="#ECFDFF" offset="0%"></stop>
            <stop stop-color="#FFFFFF" offset="100%"></stop>
        </linearGradient>
    </defs>
    <g id="Page-1" stroke="none" stroke-width="1" fill="none" fill-rule="evenodd" opacity="0.925757999">
        <path d="M927.591467,806.596654 C799.26019,880.770897 634.562878,836.606622 560.485666,708.107249 C486.384855,579.607876 530.514956,414.694834 658.846233,340.520591 C807.732225,254.436881 998.435618,210.792463 1225.59944,210.792463 C1266.85047,210.792463 1326.16258,214.140032 1403.53578,220.835169 L1493.6839,-144.24672 C1377.04199,-156.597279 1287.6805,-162.772558 1225.59944,-162.772558 C932.098873,-162.772558 678.64578,-102.280025 472.31986,17.0036884 C165.83985,194.180647 60.4467861,587.996489 237.391971,894.877945 C356.14206,1100.81249 572.308757,1216.05549 794.280804,1216.05549 C903.095721,1216.05549 1013.30298,1188.36125 1114.11784,1130.08993 C1139.38448,1115.48665 1176.50569,1091.02183 1225.48145,1056.69547 L954.895491,789.937578 C945.833481,795.679642 936.724273,801.303558 927.591467,806.596654 Z" id="Fill-331-Copy-3" fill="url(#linearGradient-1)" transform="translate(822.609616, 526.641465) rotate(-105.000000) translate(-822.609616, -526.641465) "></path>
    </g>
</svg>