<?xml version="1.0" encoding="UTF-8"?>
<svg width="954px" height="1194px" viewBox="0 0 954 1194" version="1.1" xmlns="http://www.w3.org/2000/svg" xmlns:xlink="http://www.w3.org/1999/xlink">
    <!-- Generator: Sketch 52.4 (67378) - http://www.bohemiancoding.com/sketch -->
    <title>Fill 331 Copy 3</title>
    <desc>Created with Sketch.</desc>
    <defs>
        <linearGradient x1="29.8170281%" y1="40.3698473%" x2="105.031846%" y2="61.9176038%" id="linearGradient-1">
            <stop stop-color="#ECFDFF" offset="0%"></stop>
            <stop stop-color="#FFFFFF" offset="100%"></stop>
        </linearGradient>
    </defs>
    <g id="Page-1" stroke="none" stroke-width="1" fill="none" fill-rule="evenodd">
        <path d="M535.852671,888.725478 C440.604632,943.748652 318.365563,910.987164 263.385131,815.66508 C208.387183,720.342996 241.140738,598.008898 336.388776,542.985724 C446.892614,479.127991 588.433511,446.752138 757.0355,446.752138 C787.652192,446.752138 831.673904,449.235397 889.100635,454.201915 L956.008967,183.380621 C869.436826,174.218857 803.112337,169.637974 757.0355,169.637974 C539.198087,169.637974 351.084088,214.511923 197.948082,302.997741 C-29.5227291,434.429331 -107.745925,726.565751 23.5835695,954.213397 C111.720408,1106.97764 272.160281,1192.46602 436.90891,1192.46602 C517.67182,1192.46602 599.468131,1171.92217 674.293364,1128.69593 C693.04638,1117.86308 720.5979,1099.71484 756.947923,1074.25121 L556.117838,876.367613 C549.391974,880.627133 542.63108,884.799007 535.852671,888.725478 Z" id="Fill-331-Copy-3" fill="url(#linearGradient-1)" transform="translate(457.934679, 681.051997) rotate(-60.000000) translate(-457.934679, -681.051997) "></path>
    </g>
</svg>