<?xml version="1.0" encoding="UTF-8" standalone="no"?>
<svg width="45px" height="47px" viewBox="0 0 45 47" version="1.1" xmlns="http://www.w3.org/2000/svg" xmlns:xlink="http://www.w3.org/1999/xlink">
    <!-- Generator: Sketch 50.2 (55047) - http://www.bohemiancoding.com/sketch -->
    <title>Group 10</title>
    <desc>Created with Sketch.</desc>
    <defs></defs>
    <g id="Mockups" stroke="none" stroke-width="1" fill="none" fill-rule="evenodd">
        <g id="43" transform="translate(-1100.000000, -652.000000)" fill="#2B2B2B" fill-rule="nonzero">
            <g id="Group-10" transform="translate(1101.000000, 653.000000)">
                <g id="noun_981367_cc" stroke-width="0.5">
                    <g id="Group">
                        <path d="M40.5988755,7.9445298 L39.761438,3.27537632 L36.9001931,3.76319833 L35.5044638,0 L12.3353587,7.9445298 L12.3353587,8.01421866 L11.9864263,8.01421866 L11.9864263,26.8302103 L42.8320423,26.8302103 L42.8320423,8.01421866 L40.5988755,8.01421866 L40.5988755,7.9445298 Z M39.5520786,7.9445298 L18.6161402,7.9445298 L38.9937869,4.46008691 L39.5520786,7.9445298 Z M35.8533961,3.9722649 L18.4067808,6.96888579 L34.8763857,1.3240883 L35.8533961,3.9722649 Z M41.7852454,25.7151886 L13.0332233,25.7151886 L13.0332233,8.98986267 L41.7852454,8.98986267 L41.7852454,25.7151886 Z" id="Shape" stroke="#2B2B2B"></path>
                        <path d="M17.8484891,23.2063897 L17.8484891,23.6942117 L37.039766,23.6942117 L37.039766,23.2063897 C37.039766,21.9519902 38.0167764,20.9763462 39.2729327,20.9763462 L39.761438,20.9763462 L39.761438,13.728705 L39.2729327,13.728705 C38.0167764,13.728705 37.039766,12.753061 37.039766,11.4986616 L37.039766,11.0108396 L17.8484891,11.0108396 L17.8484891,11.4986616 C17.8484891,12.753061 16.8714786,13.728705 15.6153223,13.728705 L15.1268171,13.728705 L15.1268171,20.9763462 L15.5455359,20.9763462 C16.8016922,20.9763462 17.8484891,21.9519902 17.8484891,23.2063897 Z M16.1038276,14.7740379 C17.4995568,14.5649713 18.6161402,13.4499496 18.8254996,12.0561724 L36.0627555,12.0561724 C36.2721149,13.4499496 37.3886983,14.5649713 38.7844275,14.7740379 L38.7844275,20.0007022 C37.3886983,20.2097688 36.2721149,21.3247905 36.0627555,22.7185677 L18.8254996,22.7185677 C18.6161402,21.3247905 17.4995568,20.2097688 16.1038276,20.0007022 L16.1038276,14.7740379 Z" id="Shape" stroke="#2B2B2B"></path>
                        <path d="M40.4593026,32.1265635 C39.8312244,31.8478081 39.1333598,31.8478081 38.5750681,32.1265635 L29.5028282,36.0988284 C29.5028282,35.9594507 29.5726146,35.820073 29.5726146,35.6806953 C29.5726146,34.4262958 28.5258177,33.3809629 27.2696614,33.3809629 C27.2696614,33.3809629 27.2696614,33.3809629 27.1998749,33.3809629 L20.9190934,33.3809629 L16.2434005,31.1509195 C15.26639,30.6630975 14.1498067,30.4540309 13.0332233,30.4540309 L9.40432728,30.4540309 L9.40432728,28.7814983 L0.122727915,28.7814983 L0.122727915,29.8268312 L8.35753036,29.8268312 L8.35753036,42.7192699 L1.93717591,42.7192699 L1.93717591,43.7646028 L9.33454082,43.7646028 L9.33454082,42.0920702 L12.0562128,42.0920702 L20.7795205,45.0190022 C21.3378122,45.2280688 21.9658903,45.2977577 22.5939685,45.2977577 C23.5011925,45.2977577 24.4084165,45.0886911 25.245854,44.6705579 L40.4593026,36.7260281 C41.7154589,36.1685173 42.343537,34.7050512 41.7852454,33.4506518 C41.575886,32.8234521 41.0873807,32.4053189 40.4593026,32.1265635 Z M40.0405838,35.820073 L24.8271352,43.7646028 C23.7105519,44.3221136 22.3846091,44.4614914 21.1982392,44.0433582 L12.4051451,41.1164262 L9.40432728,41.1164262 L9.40432728,31.4993638 L13.0332233,31.4993638 C14.0102337,31.4993638 14.9174577,31.7084304 15.7548953,32.1265635 L20.709734,34.4262958 L27.2696614,34.4262958 C27.967526,34.4262958 28.5258177,34.9838067 28.5258177,35.7503841 C28.5258177,36.4472727 27.967526,37.0744724 27.1998749,37.0744724 L19.5931506,37.0744724 L19.5233642,37.0744724 C18.8254996,37.2138501 17.4995568,37.771361 17.4995568,39.1651382 L18.5463537,39.1651382 C18.5463537,38.3985607 19.4535777,38.1198053 19.6629371,38.0501164 L27.2696614,38.0501164 C27.6883802,38.0501164 28.0373125,37.9107387 28.3164583,37.771361 L38.9240004,33.1022075 C39.2729327,32.9628298 39.6916515,32.9628298 40.0405838,33.1022075 C40.3895161,33.2415852 40.668662,33.5203407 40.8082349,33.868785 C41.1571672,34.6353624 40.8082349,35.4716287 40.0405838,35.820073 Z" id="Shape" stroke="#2D2D2D"></path>
                    </g>
                </g>
                <path d="M28.0469382,14.6211096 C28.5522884,14.6211096 29.0576387,14.7620359 29.5268924,15.008657 L29.815664,14.5506464 C29.2742173,14.2335621 28.6605778,14.0926357 28.0830346,14.0926357 C26.4225981,14.0926357 25.0509332,15.184815 24.6177759,16.6645417 L23.2461109,16.6645417 L23.2461109,17.1930156 L24.4733901,17.1930156 C24.4733901,17.3339419 24.4372936,17.4748683 24.4372936,17.6157946 C24.4372936,17.756721 24.4372936,17.8976474 24.4733901,18.0385737 L23.2461109,18.0385737 L23.2461109,18.5670476 L24.5816794,18.5670476 C25.0148368,20.0467743 26.3865017,21.1389536 28.0469382,21.1389536 C28.6605778,21.1389536 29.2381209,20.9980272 29.7795676,20.6809429 L29.5268924,20.2229323 C29.0576387,20.4695534 28.5522884,20.6104797 28.0469382,20.6104797 C26.7113697,20.6104797 25.5562834,19.7649216 25.1231261,18.5670476 L28.3718062,18.5670476 L28.3718062,18.0385737 L25.0148368,18.0385737 C24.9787403,17.8976474 24.9787403,17.756721 24.9787403,17.6157946 C24.9787403,17.4748683 24.9787403,17.3339419 25.0148368,17.1930156 L28.3718062,17.1930156 L28.3718062,16.6645417 L25.1592225,16.6645417 C25.5562834,15.4666677 26.7113697,14.6211096 28.0469382,14.6211096 Z" id="Shape" stroke="#2B2B2B" stroke-width="0.6"></path>
            </g>
        </g>
    </g>
</svg>