<?xml version="1.0" encoding="utf-8"?>
<!-- Generator: Adobe Illustrator 18.0.0, SVG Export Plug-In . SVG Version: 6.00 Build 0)  -->
<!DOCTYPE svg PUBLIC "-//W3C//DTD SVG 1.1//EN" "http://www.w3.org/Graphics/SVG/1.1/DTD/svg11.dtd">
<svg version="1.1" xmlns="http://www.w3.org/2000/svg" xmlns:xlink="http://www.w3.org/1999/xlink" x="0px" y="0px"
	 viewBox="-0.1 -1.1 48.2 48.2" enable-background="new -0.1 -1.1 48.2 48.2" xml:space="preserve">
<g id="Livello_1" display="none">
	<title>ic_pmi</title>
	<desc>Created with Sketch.</desc>
	<g id="Mockups" display="inline">
		<g id="_x34_3" transform="translate(-286.000000, -661.000000)">
			<g id="ic_pmi" transform="translate(286.000000, 661.000000)">
				<g id="noun_598858_cc">
					<path id="Shape" d="M29.8,23.9c4.6-2,7.9-6.2,7.9-11.2c0-6.8-6.1-12.4-13.6-12.4c-7.5,0-13.6,5.5-13.6,12.4
						c0,5,3.2,9.2,7.9,11.2c-10.3,2.3-18,10.8-18,20.9c0,0.2,0.1,0.5,0.3,0.6c0.2,0.2,0.4,0.3,0.7,0.3h45.4c0.3,0,0.5-0.1,0.7-0.3
						c0.2-0.2,0.3-0.4,0.3-0.6C47.7,34.7,40.1,26.2,29.8,23.9z M28.4,25.5l-2.9,3.9h-2.9l-2.4-4c1.2-0.2,2.5-0.3,3.8-0.3
						C25.5,25.1,27,25.2,28.4,25.5z M15.8,20.1c-2.1-1.9-3.4-4.5-3.4-7.5c0-2.9,1.3-5.5,3.4-7.5c2.1-1.9,5-3.1,8.2-3.1
						c3.2,0,6.1,1.2,8.2,3.1c2.1,1.9,3.4,4.5,3.4,7.5c0,2.9-1.3,5.5-3.4,7.5c-2.1,1.9-5,3.1-8.2,3.1C20.8,23.2,17.9,22.1,15.8,20.1z
						 M2.3,43.9c0.3-5.1,2.6-9.7,6.3-13c2.6-2.4,5.9-4.1,9.5-5.1l2.8,4.6l-3.1,13.5H2.3z M20,43.9l2.9-12.7h2.4l3.5,12.7H20z
						 M30.8,43.9l-3.7-13.4l3.3-4.5c3.4,1,6.5,2.7,8.9,4.9c3.7,3.4,6.1,8,6.3,13H30.8z"/>
				</g>
			</g>
		</g>
	</g>
</g>
<g id="Livello_2" display="none">
	<g display="inline">
		<path fill="#992C2C" d="M23.9,2.3c6.3,0,11.7,4.8,11.7,10.4c0,5.7-5.2,10.3-11.7,10.3c-6.4,0-11.5-4.6-11.5-10.3
			C12.4,7,17.6,2.3,23.9,2.3 M23.9,0.3c-7.4,0-13.5,5.6-13.5,12.4c0,6.8,6.1,12.3,13.5,12.3c7.4,0,13.7-5.5,13.7-12.3
			C37.6,5.9,31.4,0.3,23.9,0.3L23.9,0.3z"/>
	</g>
</g>
<g id="decisione" display="none">
	<path display="inline" fill="none" stroke="#1BAC80" stroke-width="2" stroke-linejoin="round" stroke-miterlimit="10" d="M45.5,10
		 M22.2,18.3 M40.4,20.9v8.5c0,0.6-0.5,1.1-1.1,1.1H10.2l-5.9-5.3l5.9-5.3h29.1C39.9,19.8,40.4,20.3,40.4,20.9z M37.8,4.7l5.9,5.3
		l-5.9,5.3H8.9c-0.6,0-1.1-0.5-1.1-1.1V5.8c0-0.6,0.5-1.1,1.1-1.1H37.8z"/>
	
		<line display="inline" fill="none" stroke="#1BAC80" stroke-width="2" stroke-linecap="round" stroke-linejoin="round" stroke-miterlimit="10" x1="23" y1="30.4" x2="23" y2="45.4"/>
	
		<line display="inline" fill="none" stroke="#1BAC80" stroke-width="2" stroke-linecap="round" stroke-linejoin="round" stroke-miterlimit="10" x1="23" y1="15.3" x2="23" y2="19.8"/>
	
		<line display="inline" fill="none" stroke="#1BAC80" stroke-width="2" stroke-linecap="round" stroke-linejoin="round" stroke-miterlimit="10" x1="23" y1="0.9" x2="23" y2="4.7"/>
</g>
<g id="valore" display="none">
	
		<line display="inline" fill="none" stroke="#1BAC80" stroke-width="2" stroke-linecap="round" stroke-miterlimit="10" x1="2.9" y1="44.6" x2="2.9" y2="0.7"/>
	
		<line display="inline" fill="none" stroke="#1BAC80" stroke-width="2" stroke-linecap="round" stroke-miterlimit="10" x1="45.9" y1="44.6" x2="2.9" y2="44.6"/>
	<polyline display="inline" fill="none" stroke="#1BAC80" stroke-width="2" stroke-linecap="round" stroke-miterlimit="10" points="
		9.5,25.6 20.8,14.4 32,17 35.9,11 	"/>
	<polygon display="inline" fill="#1BAC80" points="31.7,9 40.1,4.3 39.9,13.9 	"/>
	<g display="inline">
		<path fill="#1BAC80" d="M13.2,31.6v6.3h-1.7v-6.3L13.2,31.6 M15.2,29.6l-5.7,0v10.3h5.7V29.6L15.2,29.6z"/>
	</g>
	<g display="inline">
		<path fill="#1BAC80" d="M21.8,25l0.1,12.9h-1.7V25H21.8 M23.8,23h-5.6v16.9h5.7L23.8,23L23.8,23z"/>
	</g>
	<g display="inline">
		<path fill="#1BAC80" d="M30.4,22v15.9h-1.7l0-15.9H30.4 M32.4,20h-5.8l0,19.9h5.7V20L32.4,20z"/>
	</g>
	<g display="inline">
		<path fill="#1BAC80" d="M38.9,19.6L39,37.9h-1.7l0-18.3H38.9 M40.9,17.6h-5.7l0,22.3H41L40.9,17.6L40.9,17.6z"/>
	</g>
</g>
<g id="networking">
	<g>
		<path fill="#1BAC80" d="M24,1.2c2,0,3.6,1.6,3.6,3.6S26,8.4,24,8.4s-3.6-1.6-3.6-3.6S22,1.2,24,1.2 M24-0.8
			c-3.1,0-5.6,2.5-5.6,5.6s2.5,5.6,5.6,5.6s5.6-2.5,5.6-5.6S27.1-0.8,24-0.8L24-0.8z"/>
	</g>
	<g>
		<path fill="#1BAC80" d="M41.7,31.2c2,0,3.6,1.6,3.6,3.6s-1.6,3.6-3.6,3.6s-3.6-1.6-3.6-3.6S39.8,31.2,41.7,31.2 M41.7,29.2
			c-3.1,0-5.6,2.5-5.6,5.6s2.5,5.6,5.6,5.6s5.6-2.5,5.6-5.6S44.8,29.2,41.7,29.2L41.7,29.2z"/>
	</g>
	<g>
		<path fill="#1BAC80" d="M6.1,31.2c2,0,3.6,1.6,3.6,3.6s-1.6,3.6-3.6,3.6s-3.6-1.6-3.6-3.6S4.1,31.2,6.1,31.2 M6.1,29.2
			c-3.1,0-5.6,2.5-5.6,5.6s2.5,5.6,5.6,5.6c3.1,0,5.6-2.5,5.6-5.6S9.2,29.2,6.1,29.2L6.1,29.2z"/>
	</g>
	<path fill="none" stroke="#1BAC80" stroke-width="2" stroke-linecap="round" stroke-miterlimit="10" d="M32.7,43.8
		c-2.7,1.3-5.7,2-8.8,2c-5.9,0-11.2-2.5-15-6.4"/>
	<path fill="none" stroke="#1BAC80" stroke-width="2" stroke-linecap="round" stroke-miterlimit="10" d="M34.3,7
		c6.2,3.6,10.4,10.3,10.4,18c0,2-0.3,3.8-0.8,5.6"/>
	<path fill="none" stroke="#1BAC80" stroke-width="2" stroke-linecap="round" stroke-miterlimit="10" d="M3.1,25
		c0-9.9,6.9-18.2,16.2-20.3"/>
</g>
</svg>
