<?xml version="1.0" encoding="UTF-8" standalone="no"?>
<svg width="48px" height="46px" viewBox="0 0 48 46" version="1.1" xmlns="http://www.w3.org/2000/svg" xmlns:xlink="http://www.w3.org/1999/xlink">
    <!-- Generator: Sketch 50.2 (55047) - http://www.bohemiancoding.com/sketch -->
    <title>ic_pmi</title>
    <desc>Created with Sketch.</desc>
    <defs></defs>
    <g id="Mockups" stroke="none" stroke-width="1" fill="none" fill-rule="evenodd">
        <g id="43" transform="translate(-286.000000, -661.000000)" fill="#000000" fill-rule="nonzero">
            <g id="ic_pmi" transform="translate(286.000000, 661.000000)">
                <g id="noun_598858_cc">
                    <path d="M29.7606667,23.8812632 C34.4006667,21.9093158 37.622,17.6452368 37.6226667,12.6863158 C37.622,5.85592105 31.524,0.318973684 23.9993333,0.318368421 C16.476,0.318973684 10.3773333,5.85531579 10.3766667,12.6863158 C10.3773333,17.6452368 13.5986667,21.9093158 18.238,23.8812632 C7.92333333,26.2181842 0.28,34.6833947 0.279333333,44.7737368 C0.279333333,45.0128158 0.386,45.2464474 0.572,45.4159211 C0.758,45.5853947 1.016,45.6816316 1.27933333,45.6816316 L46.7206667,45.6816316 C46.984,45.6816316 47.2413333,45.5847895 47.428,45.4159211 C47.6146667,45.2470526 47.7206667,45.0128158 47.7206667,44.7737368 C47.72,34.6833947 40.0766667,26.2181842 29.7606667,23.8812632 Z M28.3726667,25.4537368 L25.5193333,29.3395263 L22.6426667,29.3395263 L20.2073333,25.3593158 C21.4393333,25.162 22.7053333,25.0536579 24,25.0536579 C25.498,25.0536579 26.96,25.1916579 28.3726667,25.4537368 Z M15.7813333,20.1473947 C13.6766667,18.2347632 12.378,15.6024737 12.3773333,12.6857105 C12.378,9.76955263 13.6766667,7.13726316 15.7813333,5.22463158 C17.8873333,3.31381579 20.7873333,2.13476316 23.9993333,2.13415789 C27.2113333,2.13476316 30.1113333,3.31381579 32.218,5.22463158 C34.3226667,7.13726316 35.6213333,9.76955263 35.622,12.6857105 C35.6213333,15.6024737 34.3226667,18.2347632 32.218,20.1473947 C30.1113333,22.0582105 27.2113333,23.2372632 23.9993333,23.2378684 C20.7873333,23.2372632 17.8873333,22.0582105 15.7813333,20.1473947 Z M2.30466667,43.8658421 C2.55866667,38.7798158 4.92933333,34.201 8.64133333,30.8290789 C11.2506667,28.4600789 14.5186667,26.6981579 18.174,25.7763421 L20.9993333,30.3926842 L17.9066667,43.8658421 L2.30466667,43.8658421 Z M19.95,43.8658421 L22.8673333,31.1553158 L25.2733333,31.1553158 L28.7726667,43.8658421 L19.95,43.8658421 Z M30.8346667,43.8658421 L27.1313333,30.4168947 L30.4246667,25.9312895 C33.838,26.8894211 36.8913333,28.5908158 39.358,30.8290789 C43.07,34.201 45.4406667,38.7792105 45.6946667,43.8658421 L30.8346667,43.8658421 Z" id="Shape"></path>
                </g>
            </g>
        </g>
    </g>
</svg>